{
  "schemaVersion": 1,
  "id": "${mod_id}",
  "version": "${mod_version}",

  "name": "{mod_name}",
  "description": "${mod_description}",
  "authors": [
    "${author}"
  ],
  "entrypoints": {
    "main": [
      "${maven_group}.${mod_id}.${ModId}Init"
    ]
  },
  "contact": {
    "homepage": "https://www.curseforge.com/minecraft/mc-mods/${archives_base_name}",
    "sources": "https://gitlab.com/${author}/${mod_id}"
  },

  "license": "CC0-1.0",
  "icon": "assets/${mod_id}/${mod_id}_icon.png",

  "environment": "*",
  "mixins": [
    "${mod_id}.mixins.json"
  ],

  "depends": {
    "fabricloader": ">=${loader_version}",
    "fabric": ">=${min_fabric_api_version}",
    "minecraft": ">=${min_minecraft_version} <=${minecraft_version}"
  }
}
